<?xml version="1.0" standalone="no"?>
<!DOCTYPE svg PUBLIC "-//W3C//DTD SVG 1.1//EN" "http://www.w3.org/Graphics/SVG/1.1/DTD/svg11.dtd" >
<svg xmlns="http://www.w3.org/2000/svg">
<metadata>
This is a custom SVG webfont generated by Font Squirrel.
Copyright   : Copyright  1988 1990 1993 2002 Adobe Systems Incorporated  All Rights Reserved  1981 2002 Heidelberger Druckmaschinen AG All rights reserved
Designer    : Linotype Staff
Foundry URL : httpwwwadobecomtype
</metadata>
<defs>
<font id="HelveticaNeueLTStd35Thin" horiz-adv-x="1138" >
<font-face units-per-em="2048" ascent="1462" descent="-586" />
<missing-glyph horiz-adv-x="569" />
<glyph unicode=" "  horiz-adv-x="569" />
<glyph unicode="&#x09;" horiz-adv-x="569" />
<glyph unicode="&#xa0;" horiz-adv-x="569" />
<glyph unicode="!" horiz-adv-x="530" d="M213 0v211h104v-211h-104zM217 969v493h98v-493l-24 -594h-49z" />
<glyph unicode="&#x22;" horiz-adv-x="645" d="M164 993v469h78v-469h-78zM403 993v469h78v-469h-78z" />
<glyph unicode="#" d="M61 473v68h250l49 354h-241v68h252l63 450h68l-64 -450h346l64 450h67l-63 -450h225v-68h-235l-49 -354h227v-68h-238l-65 -473h-68l66 473h-346l-66 -473h-67l65 473h-240zM379 541h346l49 354h-346z" />
<glyph unicode="$" d="M25 481h77q0 -195 108.5 -310.5t317.5 -127.5v682l-96 23q-78 18 -132 39.5t-112.5 60.5t-88 104.5t-29.5 155.5q0 37 5 75t31.5 96t72.5 101t136.5 78t212.5 39v100h66v-100q461 -10 475 -450h-78q-12 195 -112.5 282.5t-284.5 91.5v-635l160 -38q350 -84 350 -373 q0 -143 -77 -237.5t-186.5 -132.5t-246.5 -40v-180h-66v180q-242 20 -372.5 142t-130.5 374zM147 1108q0 -133 76 -192.5t221 -92.5l84 -18v614q-197 -8 -289 -91t-92 -220zM594 43q188 0 310 82t122 250q0 117 -73.5 191.5t-233.5 113.5l-125 31v-668z" />
<glyph unicode="%" horiz-adv-x="1593" d="M82 1071q0 158 93 262.5t249 104.5q158 0 248 -102.5t90 -264.5q0 -152 -94.5 -257t-246 -105t-245.5 104t-94 258zM160 1071q0 -119 72.5 -207t187.5 -88q119 0 191.5 88t72.5 207q0 127 -69.5 213t-192.5 86t-192.5 -87t-69.5 -212zM283 -49l952 1511h82l-952 -1511 h-82zM831 338q0 158 93.5 262.5t249.5 104.5q158 0 247.5 -102.5t89.5 -264.5q0 -152 -94 -257.5t-245.5 -105.5t-246 104.5t-94.5 258.5zM909 338q0 -119 73 -207t187 -88q119 0 192 88t73 207q0 127 -70 213t-192.5 86t-192.5 -87t-70 -212z" />
<glyph unicode="&#x26;" horiz-adv-x="1214" d="M88 348q0 39 6 75t24.5 68.5t30 57t44 55.5t46 45.5t58.5 44.5l55 38q10 7 61.5 39t55.5 36l-38 47l-42 52q-12 15 -35.5 48t-34.5 55l-24 53q-14 32 -19.5 61.5t-5.5 62.5q0 109 94.5 180.5t213.5 71.5q127 0 217 -67.5t90 -184.5q0 -43 -8.5 -81t-29 -73t-35.5 -57.5 t-52 -53.5l-53 -45q-16 -13 -64.5 -46t-60.5 -44l348 -428q49 129 49 244h78q-10 -162 -74 -309l238 -293h-105l-178 217q-68 -113 -176.5 -177.5t-239.5 -64.5q-190 0 -312 97.5t-122 275.5zM166 348q0 -137 107.5 -221t248.5 -84q70 0 132.5 23.5t103.5 56.5t71.5 68.5 t44 60t13.5 29.5l-377 469q-10 -6 -64.5 -41t-71.5 -47l-62 -46q-44 -33 -61 -56l-42 -58q-25 -35 -34 -73t-9 -81zM348 1186q0 -63 29 -120.5t88 -129.5t72 -92q63 41 95 64.5t81 69.5t71.5 97t22.5 111q0 80 -70.5 132t-159 52t-159 -52t-70.5 -132z" />
<glyph unicode="'" horiz-adv-x="417" d="M170 993v469h78v-469h-78z" />
<glyph unicode="(" horiz-adv-x="493" d="M133 545q0 498 268 952h72q-262 -444 -262 -952q0 -502 256 -922h-70q-264 435 -264 922z" />
<glyph unicode=")" horiz-adv-x="493" d="M20 -377q262 444 263 952q0 502 -256 922h69q264 -434 264 -922q0 -498 -268 -952h-72z" />
<glyph unicode="*" horiz-adv-x="720" d="M59 1223l19 57l252 -84v266h59v-266l250 84l20 -57l-251 -84l155 -209l-45 -41l-158 217l-163 -217l-50 41l166 209z" />
<glyph unicode="+" horiz-adv-x="1228" d="M98 477v78h477v477h78v-477h477v-78h-477v-477h-78v477h-477z" />
<glyph unicode="," horiz-adv-x="569" d="M205 -190q70 31 69 190h-43v211h105v-211q0 -209 -131 -258v68z" />
<glyph unicode="-" horiz-adv-x="720" d="M141 518v78h439v-78h-439z" />
<glyph unicode="." horiz-adv-x="569" d="M231 0v211h105v-211h-105z" />
<glyph unicode="/" horiz-adv-x="681" d="M-27 -35l652 1532h84l-652 -1532h-84z" />
<glyph unicode="0" d="M57 706.5q0 108.5 13.5 207t50.5 196.5t92 169t147.5 115t209 44t208.5 -44t147.5 -115t92.5 -169t50 -196.5t13 -207t-13 -207t-50 -196.5t-92.5 -169t-147.5 -115t-208.5 -44t-209 44t-147.5 115t-92 169t-50.5 196.5t-13.5 207zM135 706.5q0 -94.5 10.5 -179.5 t41 -176t76.5 -157.5t125 -108.5t181.5 -42t181 42t125 108.5t77 157.5t41 176t10.5 179.5t-10.5 179.5t-41 176t-77 157.5t-125 108.5t-181 42t-181.5 -42t-125 -108.5t-76.5 -157.5t-41 -176t-10.5 -179.5z" />
<glyph unicode="1" d="M221 1081v68q254 39 387 264h70v-1413h-78v1262q-148 -158 -379 -181z" />
<glyph unicode="2" d="M94 0q6 94 42 174t106.5 149.5t128 113.5t155.5 110l105 70q29 19 91 66.5t89 80.5l62 81q36 48 49.5 99t13.5 109q0 139 -102.5 228t-245.5 89q-186 0 -283.5 -121t-97.5 -313h-78q25 502 446 502q190 0 314.5 -100.5t124.5 -286.5q0 -88 -32 -167t-93.5 -146.5 t-122.5 -117t-150 -108.5q-225 -150 -290 -211q-125 -113 -133 -223h843v-78h-942z" />
<glyph unicode="3" d="M74 467h78q-8 -197 103.5 -310.5t307.5 -113.5q166 0 286 93t120 255q0 96 -41 166t-110.5 104.5t-150.5 48t-173 7.5v67q84 -4 157.5 8.5t140 44t105.5 94t39 150.5q0 139 -113.5 214t-259.5 75q-178 0 -273 -109.5t-104 -293.5h-77q2 211 123.5 341t330.5 130 q188 0 319.5 -90.5t131.5 -266.5q0 -127 -77 -217t-200 -106v-4q141 -16 225.5 -116.5t84.5 -246.5q0 -201 -137.5 -308.5t-346.5 -107.5q-238 0 -368.5 129.5t-120.5 362.5z" />
<glyph unicode="4" d="M59 360v78l689 975h77v-985h238v-68h-238v-360h-77v360h-689zM137 428h611v879h-5z" />
<glyph unicode="5" d="M76 432h78q-2 -172 115.5 -280.5t291.5 -108.5q176 0 289 123t113 301q0 174 -115 294t-287 120q-225 0 -362 -199h-80l147 731h715v-67h-653l-121 -564l4 -4q123 170 350 170q211 0 345 -135t134 -346q0 -213 -134 -352.5t-345 -139.5t-355 125q-131 114 -132 295z" />
<glyph unicode="6" d="M86 637q0 115 11.5 218t46 214t90 188.5t151.5 129t221 51.5q178 0 295 -98.5t137 -274.5h-77q-23 137 -119.5 221t-235.5 84q-94 0 -167.5 -33.5t-120 -95t-79 -133.5t-48 -160t-21.5 -160.5t-6 -152.5l4 -4q45 135 163 219t259 84q207 0 340 -137.5t133 -345.5 q0 -205 -134 -340.5t-339 -135.5q-143 0 -244.5 53.5t-156 149.5t-79 209t-24.5 250zM190 450.5q0 -174.5 116 -291t284 -116.5t281.5 119t113.5 289t-113.5 292.5t-281.5 122.5q-172 0 -286 -120.5t-114 -295z" />
<glyph unicode="7" d="M115 1346v67h911v-78q-102 -113 -167.5 -194.5t-147.5 -209.5t-134.5 -253t-96.5 -300t-62 -378h-90q12 168 42.5 311.5t95 313.5t185.5 351t297 370h-833z" />
<glyph unicode="8" d="M80 406q0 152 85 250t228 114v4q-127 25 -193.5 107t-66.5 202q0 184 125 269.5t311.5 85.5t311.5 -85t125 -270q0 -121 -67 -202.5t-194 -106.5v-4q143 -16 228.5 -114.5t85.5 -249.5q0 -211 -137.5 -321t-352.5 -110t-352 110t-137 321zM158 406q0 -178 117.5 -270.5 t293.5 -92.5t294 92t118 271q0 166 -115.5 247.5t-296 81.5t-296 -81.5t-115.5 -247.5zM211 1083q0 -141 103.5 -210.5t255 -69.5t255 69.5t103.5 210.5q0 150 -101.5 218.5t-257 68.5t-257 -68.5t-101.5 -218.5z" />
<glyph unicode="9" d="M94 963q0 209 134 342t343 133q494 0 494 -662q0 -115 -11.5 -218t-46 -214t-90 -188.5t-151.5 -129t-221 -51.5q-178 0 -295 98.5t-137 274.5h77q23 -137 119 -221t236 -84q94 0 167.5 35t120 96.5t79 133t48 157.5t21.5 155.5t6 141.5l-4 4q-47 -127 -151.5 -207 t-260.5 -80q-211 0 -344 135.5t-133 348.5zM172 963q0 -170 115.5 -293t283.5 -123q172 0 286 120.5t114 295.5q0 170 -115 288.5t-285 118.5t-284.5 -119.5t-114.5 -287.5z" />
<glyph unicode=":" horiz-adv-x="569" d="M231 0v211h105v-211h-105zM231 842v211h105v-211h-105z" />
<glyph unicode=";" horiz-adv-x="569" d="M205 -190q70 31 69 190h-43v211h105v-211q0 -209 -131 -258v68zM231 842v211h105v-211h-105z" />
<glyph unicode="&#x3c;" horiz-adv-x="1228" d="M94 467v106l1041 480v-86l-973 -447l973 -450v-86z" />
<glyph unicode="=" horiz-adv-x="1228" d="M98 281v77h1032v-77h-1032zM98 678v78h1032v-78h-1032z" />
<glyph unicode="&#x3e;" horiz-adv-x="1228" d="M94 -16v86l973 446l-973 451v86l1041 -484v-106z" />
<glyph unicode="?" horiz-adv-x="1062" d="M88 1010q0 223 118 355t337 132q174 0 287 -94q114 -95 114 -273q0 -82 -30.5 -151.5t-58.5 -101t-93 -95.5q-47 -41 -71.5 -66.5t-60.5 -76.5t-52.5 -116.5t-16.5 -151.5h-78q0 150 46 243t135 177q63 59 100 100t69.5 106.5t32.5 132.5q0 143 -95 216t-234 73 q-178 0 -274.5 -113.5t-96.5 -295.5h-78zM473 0v211h105v-211h-105z" />
<glyph unicode="@" horiz-adv-x="1638" d="M94 737q0 313 223.5 536.5t532.5 223.5q293 0 493.5 -181t200.5 -456q0 -225 -151.5 -407.5t-317.5 -182.5q-57 0 -95 38t-40 108h-4q-100 -145 -274 -146q-115 0 -189 90.5t-74 217.5q0 225 140.5 417.5t343.5 192.5q94 0 155.5 -54.5t73.5 -132.5h4l47 146h84 l-196 -606q-33 -98 -33 -123q0 -31 23.5 -50.5t56.5 -19.5q137 0 252.5 170t115.5 348q0 246 -186 405t-426 159q-281 0 -481.5 -209t-200.5 -498q0 -293 210 -491.5t476 -198.5q168 0 319.5 84t243.5 227h90q-94 -174 -273 -276.5t-380 -102.5q-326 0 -545 224t-219 548z M477 588q0 -113 60.5 -181.5t150.5 -68.5q57 0 121.5 45t116.5 117q57 80 95 188.5t38 190.5q0 37 -6 70.5t-23.5 76.5t-58.5 68.5t-101 25.5q-162 0 -277.5 -177t-115.5 -355z" />
<glyph unicode="A" horiz-adv-x="1214" d="M-25 0l588 1462h99l577 -1462h-96l-185 469h-700l-186 -469h-97zM287 547h643l-314 827h-4z" />
<glyph unicode="B" horiz-adv-x="1290" d="M129 1462h586q242 0 351.5 -108.5t109.5 -270.5q0 -119 -79 -208t-206 -103l4 -4q14 2 49 -6t84 -32.5t92 -63.5t74 -105.5t31 -150.5q0 -197 -138.5 -303.5t-371.5 -106.5h-586v1462zM219 799h496q178 0 274 82t96 219q0 147 -104 215.5t-266 68.5h-496v-585zM219 78 h496q197 0 308.5 86t111.5 246q0 117 -68 190.5t-156 97t-196 23.5h-496v-643z" />
<glyph unicode="C" horiz-adv-x="1441" d="M74 731q0 332 188.5 549t507.5 217q145 0 259 -48t172.5 -110.5t97 -139.5t48 -114.5t11.5 -58.5h-90q-29 180 -169.5 286.5t-328.5 106.5q-279 0 -442.5 -197.5t-163.5 -490.5t164 -490.5t442 -197.5q209 0 359.5 157.5t162.5 368.5h90q-25 -262 -197.5 -433 t-414.5 -171q-319 0 -507.5 217t-188.5 549z" />
<glyph unicode="D" horiz-adv-x="1366" d="M129 0v1462h479q188 0 324.5 -60.5t210.5 -167t107.5 -230t33.5 -271.5q0 -328 -172 -530.5t-508 -202.5h-475zM219 1384v-1306h393q86 0 165 19.5t157 66.5t134 119.5t91 188.5t35 261q0 170 -43 296t-104.5 192.5t-149.5 105.5t-155.5 48t-147.5 9h-375z" />
<glyph unicode="E" horiz-adv-x="1146" d="M129 0v1462h983v-78h-893v-585h840v-78h-840v-643h903v-78h-993z" />
<glyph unicode="F" horiz-adv-x="1052" d="M129 0v1462h918v-78h-828v-585h746v-78h-746v-721h-90z" />
<glyph unicode="G" horiz-adv-x="1517" d="M76 723q0 326 186.5 550t503.5 224q231 0 401 -132t207 -355h-86q-51 193 -187 301t-333 108q-283 0 -442.5 -202.5t-159.5 -493.5q0 -295 156.5 -487.5t445.5 -192.5q260 0 412 164q142 153 142 398q0 17 -1 34h-539v78h617v-717h-78v311h-4q-53 -158 -206 -252 t-347 -94q-322 0 -505 215t-183 543z" />
<glyph unicode="H" horiz-adv-x="1372" d="M129 0v1462h90v-663h934v663h90v-1462h-90v721h-934v-721h-90z" />
<glyph unicode="I" horiz-adv-x="348" d="M129 0v1462h90v-1462h-90z" />
<glyph unicode="J" horiz-adv-x="985" d="M41 465h90q-6 -90 3 -158.5t39 -132t98.5 -97.5t172.5 -34q92 0 157 26.5t96.5 60.5t48 100.5t18.5 107.5t2 121v26v977h90v-1007q0 -55 -1 -83t-8 -88.5t-20.5 -95t-43 -83t-70.5 -75t-107.5 -46t-150.5 -19.5q-113 0 -194 33t-123 78t-64.5 119.5t-27.5 131t-5 138.5z " />
<glyph unicode="K" horiz-adv-x="1255" d="M129 0v1462h90v-841l920 841h116l-667 -608l708 -854h-112l-662 793l-303 -277v-516h-90z" />
<glyph unicode="L" horiz-adv-x="1024" d="M129 0v1462h90v-1384h830v-78h-920z" />
<glyph unicode="M" horiz-adv-x="1656" d="M129 0v1462h129l571 -1362h5l565 1362h129v-1462h-90v1352h-4l-557 -1352h-91l-563 1352h-4v-1352h-90z" />
<glyph unicode="N" horiz-adv-x="1388" d="M129 0v1462h113l923 -1341h4v1341h91v-1462h-107l-930 1352h-4v-1352h-90z" />
<glyph unicode="O" horiz-adv-x="1517" d="M63 731q0 332 188.5 549t508 217t507 -218t187.5 -548t-187.5 -548t-507 -218t-508 217t-188.5 549zM154 731q0 -293 163.5 -490.5t442.5 -197.5q276 0 440 197.5t164 490.5t-164 490.5t-440 197.5q-279 0 -442.5 -197.5t-163.5 -490.5z" />
<glyph unicode="P" horiz-adv-x="1210" d="M129 0v1462h623q57 0 109 -8t111.5 -34.5t103.5 -70.5t73 -120t29 -176q0 -193 -120 -297.5t-339 -104.5h-500v-651h-90zM219 729h514q182 0 268 97.5t86 228.5q0 49 -13 98t-47 105.5t-106.5 91t-175.5 34.5h-526v-655z" />
<glyph unicode="Q" horiz-adv-x="1517" d="M63 731q0 332 188.5 549t508 217t507 -218t187.5 -548q0 -371 -219 -579l227 -164l-47 -64l-241 174q-172 -133 -414 -133q-319 0 -508 217t-189 549zM154 731q0 -293 163.5 -490.5t442.5 -197.5q199 0 342 109l-221 157l47 64l235 -170q201 195 201 528 q0 293 -164 490.5t-440 197.5q-279 0 -442.5 -197.5t-163.5 -490.5z" />
<glyph unicode="R" horiz-adv-x="1290" d="M129 1462h610q211 0 337 -89t126 -288q0 -147 -84 -248.5t-229 -125.5v-4q150 -16 211 -98.5t74 -215.5q4 -47 5 -143t9 -155.5t35 -94.5h-101q-25 45 -30 120q-4 50 -5 97q0 24 2 46q1 19 0 38q0 52 -6 109q-16 121 -90.5 188.5t-253.5 67.5h-520v-666h-90v1462z M219 743h520q170 0 271.5 83t101.5 253q0 156 -105.5 230.5t-267.5 74.5h-520v-641z" />
<glyph unicode="S" horiz-adv-x="1290" d="M80 483h90q-1 -17 -1 -33q0 -200 139 -299q151 -108 388 -108q98 0 189.5 28.5t163 107.5t71.5 198q0 70 -27.5 123t-68.5 85.5t-108.5 58.5t-127 40t-145.5 31q-14 2 -22 4q-78 16 -125 27.5t-113 33t-105.5 49t-78.5 65.5t-57.5 92t-18.5 122q0 195 147.5 292t343.5 97 q244 0 396.5 -111.5t163.5 -341.5h-91q-8 182 -134 278.5t-335 96.5q-68 0 -133 -15t-127.5 -49t-101.5 -97.5t-39 -149.5q0 -66 29.5 -116t59.5 -78.5t113 -56.5t116.5 -36t142.5 -30l37 -9q92 -18 149 -33.5t132 -47t117 -70.5t71.5 -104.5t29.5 -149.5q0 -109 -48 -192 t-126 -129t-164 -68.5t-176 -22.5q-279 0 -448.5 126t-167.5 392z" />
<glyph unicode="T" horiz-adv-x="1062" d="M-29 1384v78h1121v-78h-517v-1384h-90v1384h-514z" />
<glyph unicode="U" horiz-adv-x="1376" d="M129 586v876h90v-876q0 -66 6 -125.5t34 -140t74 -138t135 -98.5t210 -41q256 0 367.5 139.5t111.5 403.5v876h90v-876q0 -621 -569 -621q-549 0 -549 621z" />
<glyph unicode="V" d="M-29 1462h95l501 -1384h4l506 1384h90l-546 -1462h-105z" />
<glyph unicode="W" horiz-adv-x="1820" d="M-12 1462h92l381 -1366h4l387 1366h113l393 -1366h4l375 1366h96l-420 -1462h-102l-402 1384h-4l-395 -1384h-100z" />
<glyph unicode="X" d="M-35 0l549 752l-512 710h104l463 -643l473 643h103l-516 -710l545 -752h-109l-496 684l-497 -684h-107z" />
<glyph unicode="Y" horiz-adv-x="1175" d="M-43 1462h102l529 -774l530 774h101l-588 -850v-612h-90v612z" />
<glyph unicode="Z" horiz-adv-x="1099" d="M-2 0v78l987 1306h-928v78h1026v-78l-991 -1306h1010v-78h-1104z" />
<glyph unicode="[" horiz-adv-x="493" d="M193 -377v1874h280v-67h-203v-1739h203v-68h-280z" />
<glyph unicode="\" horiz-adv-x="681" d="M-27 1497h84l652 -1532h-84z" />
<glyph unicode="]" horiz-adv-x="493" d="M20 -309h203v1739h-203v67h281v-1874h-281v68z" />
<glyph unicode="^" horiz-adv-x="1228" d="M80 485l483 928h107l479 -928h-86l-447 861l-450 -861h-86z" />
<glyph unicode="_" horiz-adv-x="1024" d="M0 -154h1024v-102h-1024v102z" />
<glyph unicode="`" horiz-adv-x="342" d="M-61 1497h104l246 -287h-76z" />
<glyph unicode="a" horiz-adv-x="1024" d="M66 272q0 72 24.5 126.5t61 86t91 54t102.5 32t108 13.5q92 6 147 12t100 18.5t64.5 23.5t33 37.5t15.5 52.5t2 75q0 23 -13.5 53.5t-42 67.5t-91 61.5t-146.5 24.5q-143 0 -229 -73t-94 -208h-78q8 172 110.5 260t290.5 88q369 0 369 -274v-608q0 -41 2 -62.5t18.5 -43 t49.5 -21.5q20 0 57 6v-66q-45 -8 -64 -8q-84 0 -112.5 39t-28.5 115v55h-4q-39 -100 -143.5 -167t-247.5 -67q-352 0 -352 297zM143 272q0 -100 72 -164.5t205 -64.5q100 0 176 33t116 77t64.5 99t30.5 90t6 59v197q-23 -25 -68 -40t-87 -19l-114.5 -10.5t-111.5 -12.5 q-145 -16 -217 -72.5t-72 -171.5z" />
<glyph unicode="b" d="M133 0v1462h78v-633h4q43 119 154.5 183.5t244.5 64.5q223 0 340 -147.5t117 -378.5q0 -143 -35 -252t-84 -168t-115.5 -96t-118.5 -48.5t-104 -11.5q-96 0 -175 32t-124 79t-68.5 84t-31.5 66h-4v-236h-78zM213 551q0 -213 100.5 -360.5t300.5 -147.5q131 0 220.5 79 t124 188.5t34.5 240.5q0 188 -100 323.5t-279 135.5q-199 0 -300 -126t-101 -333z" />
<glyph unicode="c" horiz-adv-x="1062" d="M68 537q0 229 129 384.5t354 155.5q180 0 299 -89t135 -261h-78q-10 135 -109.5 209t-246.5 74q-188 0 -297 -140.5t-109 -332.5q0 -223 104.5 -358.5t301.5 -135.5q145 0 245.5 91t121.5 237h77q-25 -184 -147.5 -290t-296.5 -106q-242 0 -362.5 161t-120.5 401z" />
<glyph unicode="d" d="M66 524q0 246 119.5 399.5t349.5 153.5q133 0 240.5 -69.5t148.5 -190.5h4v645h78v-1462h-78v225h-4q-129 -250 -404 -250q-225 0 -339.5 156.5t-114.5 392.5zM143 524q0 -201 101.5 -341t292.5 -140q188 0 288.5 141.5t100.5 339.5q0 201 -100.5 343.5t-290.5 142.5 q-197 0 -294.5 -138.5t-97.5 -347.5z" />
<glyph unicode="e" horiz-adv-x="1062" d="M67 508v15q0 224 118 386q122 168 347 168q236 0 356 -161q109 -146 108 -356q0 -22 -1 -44h-850v-15q0 -189 99 -321q102 -137 288 -137q150 0 249.5 84t127.5 229h78q-31 -184 -148.5 -282.5t-306.5 -98.5q-221 0 -345 152q-120 147 -120 366v15zM145 584h773 q-4 176 -107.5 301t-278.5 125q-166 0 -269.5 -128t-117.5 -298z" />
<glyph unicode="f" horiz-adv-x="493" d="M0 985v68h188v217q0 104 64.5 156.5t167.5 52.5q41 0 92 -11v-67q-51 10 -92 10q-154 0 -154 -147v-211h219v-68h-219v-985h-78v985h-188z" />
<glyph unicode="g" horiz-adv-x="1099" d="M68 559q0 219 120.5 368.5t333.5 149.5q127 0 233.5 -64.5t147.5 -178.5h4v219h78v-998q0 -29 -1 -52t-10 -75.5t-24.5 -92.5t-49.5 -88t-80 -80t-121 -51q-68 -18 -151 -18q-9 0 -18 1q-395 0 -411 327h78q12 -133 104 -196.5t231 -63.5q104 0 180 34t112 76t56.5 102.5 t23.5 92t3 66.5v242h-4q-113 -240 -381 -240q-223 0 -338.5 144.5t-115.5 375.5zM145 559q0 -195 99.5 -324t277.5 -129q182 0 282.5 131.5t100.5 322t-99 320.5t-284 130q-180 0 -278.5 -134.5t-98.5 -316.5z" />
<glyph unicode="h" horiz-adv-x="1062" d="M115 0v1462h78v-635h4q39 115 144 182.5t232 67.5q88 0 156 -21.5t106.5 -61.5t63.5 -80t35 -97t12 -89t2 -77v-651h-78v666q0 344 -299 344q-174 0 -276 -122t-102 -319v-569h-78z" />
<glyph unicode="i" horiz-adv-x="344" d="M133 0v1053h78v-1053h-78zM133 1251v211h78v-211h-78z" />
<glyph unicode="j" horiz-adv-x="344" d="M-70 -307q25 -4 52 -4q84 0 117.5 43t33.5 162v1159h78v-1166q0 -123 -45 -193.5t-170 -70.5q-45 0 -66 2v68zM133 1251v211h78v-211h-78z" />
<glyph unicode="k" horiz-adv-x="948" d="M119 0v1462h78v-968l649 559h112l-460 -394l493 -659h-106l-449 600l-239 -203v-397h-78z" />
<glyph unicode="l" horiz-adv-x="344" d="M133 0v1462h78v-1462h-78z" />
<glyph unicode="m" horiz-adv-x="1630" d="M117 0v1053h78v-215h4q25 100 119 169.5t210 69.5q139 0 219 -65.5t99 -157.5h4q96 223 334 223q150 0 239.5 -90t89.5 -268v-719h-77v721q0 76 -20.5 132t-49.5 85t-67.5 46t-64.5 21.5t-50 4.5q-147 0 -238.5 -101.5t-91.5 -285.5v-623h-78v721q0 92 -27.5 155.5 t-72.5 89t-79 35t-69 9.5q-129 0 -231 -100.5t-102 -286.5v-623h-78z" />
<glyph unicode="n" horiz-adv-x="1062" d="M115 0v1053h78v-226h4q39 115 144 182.5t232 67.5q88 0 156 -21.5t106.5 -61.5t63.5 -80t35 -97t12 -89t2 -77v-651h-78v666q0 344 -299 344q-174 0 -276 -122t-102 -319v-569h-78z" />
<glyph unicode="o" horiz-adv-x="1099" d="M66 526.5q0 233.5 130 392t353 158.5t353 -158.5t130 -392t-130 -392.5t-353 -159t-353 159t-130 392.5zM143 526.5q0 -200.5 108.5 -342t297 -141.5t297 141.5t108.5 342t-108.5 342t-297 141.5t-297 -141.5t-108.5 -342z" />
<glyph unicode="p" d="M133 -377v1430h78v-242h4q31 98 129 182t254 84q231 0 352 -157.5t121 -395.5q0 -250 -120 -399.5t-353 -149.5q-137 0 -237.5 60.5t-145.5 183.5h-4v-596h-78zM213 524q0 -100 19.5 -182t61.5 -151.5t120 -108.5t184 -39q195 0 295 136t100 345q0 201 -99 343.5 t-296 142.5t-291 -139.5t-94 -346.5z" />
<glyph unicode="q" d="M66 528q0 236 114.5 392.5t339.5 156.5q274 0 404 -250h4v226h78v-1430h-78v613h-4q-41 -121 -148.5 -191t-240.5 -70q-229 0 -349 153.5t-120 399.5zM143 528q0 -209 97.5 -347t294.5 -138q190 0 290.5 142.5t100.5 342.5q0 199 -100.5 340.5t-288.5 141.5 q-190 0 -292 -140.5t-102 -341.5z" />
<glyph unicode="r" horiz-adv-x="569" d="M115 0v1053h78v-234h6q31 104 146 175q106 65 235 65h22v-78q-24 3 -46 3q-137 0 -245 -105q-61 -63 -86.5 -126t-31.5 -178v-575h-78z" />
<glyph unicode="s" horiz-adv-x="985" d="M74 350h78q8 -143 105 -225t243 -82q57 0 110.5 10t106.5 33t85 69t32 111q0 80 -55.5 130t-109 66.5t-167.5 39.5q-18 4 -29 6q-84 16 -136 32.5t-110.5 49.5t-87 86t-28.5 131q0 98 60 161.5t141 86t180 22.5q178 0 283.5 -82t105.5 -254h-78q-2 137 -86 203t-225 66 q-123 0 -213.5 -50.5t-90.5 -152.5q0 -55 26 -95t74 -63.5t99 -38t119 -28.5q23 -4 33 -7q92 -16 148 -33.5t113.5 -51t84 -89t26.5 -135.5q0 -82 -37.5 -141t-100 -90t-130.5 -45.5t-143 -14.5q-186 0 -304 98.5t-122 276.5z" />
<glyph unicode="t" horiz-adv-x="530" d="M0 985v68h195v327h77v-327h230v-68h-230v-735q0 -119 53 -153q47 -30 149 -30q12 0 26 1v-68q-27 -2 -51 -2q-36 0 -66 4q-49 6 -97 29.5t-71 78.5q-21 50 -21 126q0 7 1 14v735h-195z" />
<glyph unicode="u" horiz-adv-x="1062" d="M115 401v652h78v-666q0 -344 299 -344q174 0 276 122t102 318v570h78v-1053h-78v225h-4q-39 -115 -144.5 -182.5t-232.5 -67.5q-88 0 -155.5 21.5t-106.5 61.5t-63.5 80t-34.5 97.5t-12 89t-2 76.5z" />
<glyph unicode="v" horiz-adv-x="909" d="M-4 1053h90l381 -963h4l356 963h86l-397 -1053h-96z" />
<glyph unicode="w" horiz-adv-x="1441" d="M-4 1053h84l297 -963h4l287 963h104l289 -963h4l295 963h86l-338 -1053h-96l-289 954h-4l-291 -954h-98z" />
<glyph unicode="x" horiz-adv-x="909" d="M-12 0l413 553l-385 500h109l330 -441l331 441h101l-381 -500l416 -553h-107l-360 494l-369 -494h-98z" />
<glyph unicode="y" horiz-adv-x="909" d="M-12 1053h92l391 -961l360 961h89l-451 -1166q-76 -180 -123 -217q-39 -31 -92 -39t-154 -8v68q84 0 132.5 14t86.5 53q33 33 109 248z" />
<glyph unicode="z" horiz-adv-x="872" d="M18 0v74l707 911h-651v68h747v-74l-708 -911h741v-68h-836z" />
<glyph unicode="{" horiz-adv-x="681" d="M170 520v78q147 4 147 332v325q0 133 45.5 187.5t135.5 54.5h102v-67h-98q-61 0 -84 -46.5t-23 -164.5v-322q0 -78 -14 -138.5t-27.5 -91t-41 -58t-33 -29.5t-27.5 -15q2 -2 19.5 -14t29.5 -24.5t31.5 -39t32 -59.5t21.5 -86t9 -119v-321q0 -119 22.5 -165t84.5 -46h98 v-68h-102q-90 0 -135.5 54.5t-45.5 187.5v323q0 328 -147 332z" />
<glyph unicode="|" horiz-adv-x="454" d="M188 -438v2048h78v-2048h-78z" />
<glyph unicode="}" horiz-adv-x="681" d="M82 -309h98q61 0 84 46t23 165v321q0 66 9 119t21.5 86t32 59.5t31.5 39t29.5 24.5t19.5 14q-68 37 -98 99q-45 88 -45 233v322q0 119 -22.5 165t-84.5 46h-98v67h102q90 0 135.5 -54t45.5 -188v-325q0 -328 147 -332v-78q-147 -4 -147 -332v-323q0 -133 -45.5 -187.5 t-135.5 -54.5h-102v68z" />
<glyph unicode="~" horiz-adv-x="1228" d="M150 455q53 88 107 129t142 41q80 0 228 -66l44 -22l51 -25.5t51 -18t63 -8.5q55 0 106 47.5t82 106.5l57 -57q-113 -174 -247 -174q-82 0 -234 77q-123 61 -188 62q-135 0 -203 -154z" />
<glyph unicode="&#xa1;" horiz-adv-x="530" d="M213 885v211h104v-211h-104zM215 117l25 594h49l24 -594v-494h-98v494z" />
<glyph unicode="&#xa2;" d="M104 537q0 221 121 375.5t332 164.5v183h66v-183q166 -8 275.5 -97t123.5 -253h-78q-10 127 -97 199.5t-224 83.5v-967q133 10 223 100t108 228h78q-25 -176 -136.5 -280.5t-272.5 -115.5v-217h-66v217q-225 10 -339 170.5t-114 391.5zM182 537q0 -213 96.5 -348.5 t278.5 -145.5v967q-174 -12 -274.5 -150.5t-100.5 -322.5z" />
<glyph unicode="&#xa3;" d="M90 35q109 104 170.5 202.5t61.5 221.5q0 127 -60 217h-160v67h123q-123 221 -123 361q0 184 135.5 288.5t329.5 104.5q240 0 364 -128q118 -122 118 -354v-24h-78q-4 428 -402 428q-178 0 -283.5 -84t-105.5 -227q0 -51 15.5 -106.5t31 -89t46 -90t40.5 -79.5h328v-67 h-289q47 -72 47 -221q0 -109 -58 -213.5t-144 -178.5l4 -4q106 74 192 74q92 0 213 -47q129 -43 186.5 -43t110.5 22.5t85 47t81 69.5l45 -67q-141 -150 -309 -150q-86 0 -221 45q-131 45 -197 45q-49 0 -94 -13t-70 -28l-82 -49z" />
<glyph unicode="&#xa4;" d="M61 707q0 190 125 329l-116 115l55 55l115 -114q141 119 327 122q188 0 332 -124l111 112l55 -55l-113 -111q125 -139 125 -329.5t-125 -327.5l111 -111l-55 -55l-109 111q-143 -125 -331.5 -125t-327.5 125l-113 -115l-55 55l114 113q-121 144 -125 330zM152 706.5 q0 -178.5 123.5 -304.5t293.5 -126t294 126t124 304.5t-124 304.5t-294 126t-293.5 -126t-123.5 -304.5z" />
<glyph unicode="&#xa5;" d="M-14 1462h98l487 -766l490 766h92l-487 -762h188v-67h-246v-160h246v-67h-246v-406h-78v406h-245v67h245v160h-245v67h188z" />
<glyph unicode="&#xa6;" horiz-adv-x="454" d="M188 -182v512h78v-512h-78zM188 842v512h78v-512h-78z" />
<glyph unicode="&#xa7;" d="M106 690q0 92 66 166t162 109q-63 45 -92 124q-21 58 -21 98q0 15 2 27q0 123 104 206q96 77 218 78q9 0 18 -1q172 0 263.5 -106.5t93.5 -292.5h-78v19q0 119 -71 212q-77 100 -208 101h-12q-90 0 -166 -59q-82 -62 -84 -157q0 -63 26.5 -116.5t80 -96.5t104.5 -73.5 t127 -69.5l25 -12q74 -39 109.5 -59.5t95 -61.5t87 -78t51 -92t23.5 -119q0 -219 -227 -278q63 -59 90 -113.5t27 -138.5q0 -145 -96.5 -214t-248.5 -69q-174 0 -273 108.5t-99 286.5h78q4 -145 78.5 -236t213.5 -91q127 0 198 53t71 162q0 61 -28 113.5t-78 93.5 t-107.5 75.5t-126.5 71.5q-18 10 -29 14l-121 72q-37 23 -97 68t-86 79.5t-45 87.5q-18 47 -18 98v11zM184 690q0 -66 39 -123t77 -84.5t106 -68.5q252 -152 337 -207q3 -1 6 -1q17 0 54 19q43 23 78 51q72 63 71 160q0 49 -22.5 95.5t-66.5 84t-79.5 63.5t-89.5 56 l-311 185q-82 -31 -140.5 -91.5t-58.5 -138.5z" />
<glyph unicode="&#xa8;" horiz-adv-x="342" d="M-37 1217v210h90v-210h-90zM287 1217v210h90v-210h-90z" />
<glyph unicode="&#xa9;" horiz-adv-x="1638" d="M53 731.5q0 317.5 224.5 541.5t542 224t541.5 -224t224 -541.5t-224 -542t-541.5 -224.5t-542 224.5t-224.5 542zM131 733q0 -293 198.5 -496.5t491.5 -203.5q291 0 488.5 203.5t197.5 496.5q0 295 -196.5 496t-489.5 201q-295 0 -492.5 -201t-197.5 -496zM379 733 q0 213 124 347t333 134q154 0 263 -83.5t128 -233.5h-78q-23 117 -108 183.5t-203 66.5q-178 0 -279.5 -114.5t-101.5 -297.5q0 -178 105.5 -300t279.5 -122q121 0 198.5 71t108.5 191h78q-18 -147 -127 -238t-258 -91q-207 0 -335 138t-128 349z" />
<glyph unicode="&#xaa;" horiz-adv-x="634" d="M27 946q0 176 252 195q166 12 200.5 32.5t34.5 100.5q0 53 -52 80.5t-138 27.5q-84 0 -138.5 -43t-60.5 -118h-66q25 217 271 217q248 0 248 -174v-365q0 -76 36 -76q20 0 37 4v-55q-29 -4 -41 -4q-55 0 -73.5 23.5t-18.5 68.5v29h-4q-20 -59 -88 -99t-164 -40 q-235 -1 -235 196zM92 946q0 -61 44 -101t120 -40q80 0 136.5 27.5t80 68.5t31.5 69.5t8 49.5v115q-18 -18 -52 -27.5t-100.5 -15t-87.5 -7.5q-180 -20 -180 -139z" />
<glyph unicode="&#xab;" horiz-adv-x="796" d="M137 516v82l234 268v-104l-174 -205l174 -209v-100zM399 516v82l234 268v-104l-174 -205l174 -209v-100z" />
<glyph unicode="&#xac;" horiz-adv-x="1228" d="M98 678v78h1032v-535h-77v457h-955z" />
<glyph unicode="&#xad;" horiz-adv-x="720" d="M141 518v78h439v-78h-439z" />
<glyph unicode="&#xae;" horiz-adv-x="1638" d="M53 731.5q0 317.5 224.5 541.5t542 224t541.5 -224t224 -541.5t-224 -542t-541.5 -224.5t-542 224.5t-224.5 542zM131 731q0 -291 198.5 -494.5t491.5 -203.5q291 0 488.5 203.5t197.5 496.5q0 295 -196.5 496t-489.5 201q-295 0 -492.5 -201t-197.5 -498zM541 279v905 h340q295 0 295 -250q0 -104 -64.5 -163.5t-169.5 -76.5l270 -415h-86l-272 417h-236v-417h-77zM618 764h193q61 0 104 5t89.5 21.5t70 53.5t23.5 92q0 96 -66.5 138t-163.5 42h-250v-352z" />
<glyph unicode="&#xaf;" horiz-adv-x="342" d="M-76 1288v68h496v-68h-496z" />
<glyph unicode="&#xb0;" horiz-adv-x="819" d="M117 1145q0 123 85 208t207.5 85t207.5 -85t85 -208t-85 -208t-207.5 -85t-207.5 85t-85 208zM195 1145q0 -92 61 -158.5t153.5 -66.5t154 66.5t61.5 158.5t-61.5 158.5t-154 66.5t-153.5 -66.5t-61 -158.5z" />
<glyph unicode="&#xb1;" horiz-adv-x="1228" d="M98 0v78h1032v-78h-1032zM98 567v78h477v387h78v-387h477v-78h-477v-387h-78v387h-477z" />
<glyph unicode="&#xb2;" horiz-adv-x="681" d="M33 563q2 78 48 146.5t95 106.5t133 89q72 43 101.5 63.5t78 60.5t67.5 81t19 88q0 76 -57 130t-170 54q-219 0 -233 -254h-66q10 150 79 230t220 80q129 0 211 -61.5t82 -180.5q0 -92 -67.5 -165t-190.5 -150q-14 -8 -54 -33l-55 -34q-14 -9 -44.5 -30.5t-45 -36 t-34 -36t-32 -44t-20.5 -49.5h549v-55h-614z" />
<glyph unicode="&#xb3;" horiz-adv-x="681" d="M37 850h65q-4 -115 68 -182.5t197 -67.5q104 0 181 55.5t77 145.5q0 104 -89.5 148t-218.5 36v55q117 -6 202 35t85 139q0 80 -73.5 124t-163.5 44q-115 0 -176.5 -64.5t-65.5 -172.5h-66q2 135 85 214t233 79q123 0 208 -55.5t85 -168.5q0 -76 -49.5 -130t-131.5 -64v-4 q92 -8 146.5 -68.5t54.5 -146.5q0 -125 -89 -190.5t-224 -65.5q-170 0 -258 77.5t-82 227.5z" />
<glyph unicode="&#xb4;" horiz-adv-x="342" d="M53 1210l246 287h104l-274 -287h-76z" />
<glyph unicode="&#xb5;" horiz-adv-x="1062" d="M115 -377v1430h78v-666q0 -344 299 -344q174 0 276 122t102 318v570h78v-1053h-78v225h-4q-39 -115 -144.5 -182.5t-232.5 -67.5q-205 0 -292 115h-4v-467h-78z" />
<glyph unicode="&#xb6;" horiz-adv-x="1228" d="M135 1061q0 195 120 298t337 103h444v-1761h-78v1694h-321v-1694h-78v963q-178 0 -301 116.5t-123 280.5z" />
<glyph unicode="&#xb7;" horiz-adv-x="569" d="M174 649q0 43 34 77t77 34t77.5 -34t34.5 -77q0 -45 -33.5 -78.5t-78.5 -33.5q-43 0 -77 34.5t-34 77.5z" />
<glyph unicode="&#xb8;" horiz-adv-x="342" d="M-18 -358l22 49q102 -37 164 -37q53 0 91 22.5t38 73.5q0 45 -33 69.5t-67 24.5q-55 0 -109 -24l-33 26l115 154h70l-99 -115l4 -4q41 18 76 19q63 0 108.5 -38t45.5 -112q0 -152 -209 -151q-102 0 -184 43z" />
<glyph unicode="&#xb9;" horiz-adv-x="681" d="M121 1214v56q156 23 246 149h59v-856h-66v760q-94 -97 -239 -109z" />
<glyph unicode="&#xba;" horiz-adv-x="684" d="M18 1093.5q0 151.5 86 248t238 96.5t238 -96.5t86 -248t-86 -247.5t-238 -96t-238 96t-86 247.5zM84 1094q0 -123 65.5 -206t192.5 -83t192.5 83t65.5 206t-65.5 205.5t-192.5 82.5t-192.5 -82.5t-65.5 -205.5z" />
<glyph unicode="&#xbb;" horiz-adv-x="796" d="M164 248v100l174 209l-174 205v104l233 -268v-82zM426 248v100l174 209l-174 205v104l233 -268v-82z" />
<glyph unicode="&#xbc;" horiz-adv-x="1708" d="M193 1214v56q156 23 245 149h60v-856h-66v760q-94 -97 -239 -109zM309 -49l953 1511h81l-952 -1511h-82zM872 213v55l410 580h96v-580h146v-55h-146v-213h-65v213h-441zM946 268h367v512h-4z" />
<glyph unicode="&#xbd;" horiz-adv-x="1708" d="M131 1214v56q156 23 246 149h59v-856h-65v760q-95 -97 -240 -109zM248 -49l952 1511h82l-952 -1511h-82zM989 0q2 78 48 146.5t95.5 106.5t133.5 89q72 43 101.5 63.5t77.5 60.5t67.5 81t19.5 88q0 76 -57.5 130t-169.5 54q-219 0 -234 -254h-65q10 150 78.5 229.5 t220.5 79.5q129 0 210.5 -61t81.5 -180q0 -92 -67.5 -165t-190.5 -151q-14 -8 -54 -32.5t-53 -33.5l-45 -31q-32 -22 -45 -36l-33 -36q-19 -22 -30.5 -44t-19.5 -49h545v-55h-615z" />
<glyph unicode="&#xbe;" horiz-adv-x="1708" d="M68 850h65v-12q0 -106 68 -170q72 -68 196 -68q104 0 181 55.5t77 145.5q0 104 -89 148q-75 37 -178 37q-19 0 -40 -1v55q15 -1 30 0q98 0 172 35q85 41 85 139q0 80 -74 124t-164 44q-115 0 -176 -64.5t-65 -172.5h-66q2 135 85 214t233 79q123 0 207.5 -55.5 t84.5 -168.5q0 -76 -49 -130t-131 -64v-4q92 -8 146.5 -68.5t54.5 -146.5q0 -125 -89 -190.5t-224 -65.5q-170 0 -258 78q-82 73 -83 208q1 9 1 19zM406 -49l952 1511h82l-953 -1511h-81zM934 213v55l409 580h97v-580h145v-55h-145v-213h-66v213h-440zM1008 268h366v512h-4z " />
<glyph unicode="&#xbf;" horiz-adv-x="1062" d="M117 -35q0 82 30.5 151.5t58 101.5t93.5 95q47 41 71.5 66.5t60.5 77t52.5 117t16.5 151.5h78q0 -150 -46.5 -243t-134.5 -177q-63 -59 -100 -100t-69.5 -106.5t-32.5 -133.5q0 -143 95 -216t234 -73q178 0 274.5 114t96.5 296h78q0 -223 -118 -355t-337 -132 q-174 0 -287.5 94t-113.5 272zM483 885v211h105v-211h-105z" />
<glyph unicode="&#xc0;" horiz-adv-x="1214" d="M-25 0l588 1462h99l577 -1462h-96l-185 469h-700l-186 -469h-97zM287 547h643l-314 827h-4zM375 1851h104l246 -286h-76z" />
<glyph unicode="&#xc1;" horiz-adv-x="1214" d="M-25 0l588 1462h99l577 -1462h-96l-185 469h-700l-186 -469h-97zM287 547h643l-314 827h-4zM489 1565l246 286h105l-275 -286h-76z" />
<glyph unicode="&#xc2;" horiz-adv-x="1214" d="M-25 0l588 1462h99l577 -1462h-96l-185 469h-700l-186 -469h-97zM287 547h643l-314 827h-4zM330 1565l235 286h82l238 -286h-78l-201 235l-198 -235h-78z" />
<glyph unicode="&#xc3;" horiz-adv-x="1214" d="M-25 0l588 1462h99l577 -1462h-96l-185 469h-700l-186 -469h-97zM287 547h643l-314 827h-4zM311 1587q6 72 45 127q43 57 113 58q41 0 143 -56l35 -20l38 -21.5t32.5 -13.5t34.5 -6q39 0 62.5 34.5t29.5 82.5h59q-10 -82 -43 -125q-45 -59 -112 -60q-45 0 -142 60 q-94 57 -143 57q-74 0 -92 -117h-60z" />
<glyph unicode="&#xc4;" horiz-adv-x="1214" d="M-25 0l588 1462h99l577 -1462h-96l-185 469h-700l-186 -469h-97zM287 547h643l-314 827h-4zM399 1571v211h90v-211h-90zM723 1571v211h90v-211h-90z" />
<glyph unicode="&#xc5;" horiz-adv-x="1214" d="M-25 0l588 1462h99l577 -1462h-96l-185 469h-700l-186 -469h-97zM287 547h643l-314 827h-4zM393 1696q0 84 59.5 143t143.5 59t143.5 -59t59.5 -143t-59.5 -143.5t-143.5 -59.5t-143.5 59.5t-59.5 143.5zM449 1695.5q0 -61.5 43 -104.5t104 -43t104 43t43 104.5 t-43 104.5t-104 43t-104 -43t-43 -104.5z" />
<glyph unicode="&#xc6;" horiz-adv-x="1781" d="M-18 0l763 1462h1004v-78h-776v-585h717v-78h-717v-643h778v-78h-868v520h-549l-271 -520h-81zM375 598h508v786h-97z" />
<glyph unicode="&#xc7;" horiz-adv-x="1441" d="M74 731q0 332 188.5 549t507.5 217q145 0 259 -48t172.5 -110.5t97 -139.5t48 -114.5t11.5 -58.5h-90q-29 180 -169.5 286.5t-328.5 106.5q-279 0 -442.5 -197.5t-163.5 -490.5t164 -490.5t442 -197.5q209 0 359.5 157.5t162.5 368.5h90q-25 -262 -197.5 -433 t-414.5 -171h-10l-68 -80l4 -4q41 18 76 19q63 0 108.5 -38t45.5 -112q0 -152 -209 -151q-102 0 -185 43l23 49q100 -37 164 -37q53 0 91 22.5t38 73.5q0 45 -33 69.5t-67 24.5q-55 0 -109 -24l-33 26l90 123q-289 25 -455.5 238t-166.5 524z" />
<glyph unicode="&#xc8;" horiz-adv-x="1146" d="M129 0v1462h983v-78h-893v-585h840v-78h-840v-643h903v-78h-993zM342 1851h104l246 -286h-76z" />
<glyph unicode="&#xc9;" horiz-adv-x="1146" d="M129 0v1462h983v-78h-893v-585h840v-78h-840v-643h903v-78h-993zM457 1565l245 286h105l-275 -286h-75z" />
<glyph unicode="&#xca;" horiz-adv-x="1146" d="M129 0v1462h983v-78h-893v-585h840v-78h-840v-643h903v-78h-993zM297 1565l235 286h82l238 -286h-78l-201 235l-198 -235h-78z" />
<glyph unicode="&#xcb;" horiz-adv-x="1146" d="M129 0v1462h983v-78h-893v-585h840v-78h-840v-643h903v-78h-993zM387 1571v211h90v-211h-90zM711 1571v211h90v-211h-90z" />
<glyph unicode="&#xcc;" horiz-adv-x="348" d="M-57 1851h104l246 -286h-76zM129 0v1462h90v-1462h-90z" />
<glyph unicode="&#xcd;" horiz-adv-x="348" d="M57 1565l246 286h105l-275 -286h-76zM129 0v1462h90v-1462h-90z" />
<glyph unicode="&#xce;" horiz-adv-x="348" d="M-102 1565l235 286h82l238 -286h-78l-201 235l-199 -235h-77zM129 0v1462h90v-1462h-90z" />
<glyph unicode="&#xcf;" horiz-adv-x="348" d="M-33 1571v211h90v-211h-90zM129 0v1462h90v-1462h-90zM291 1571v211h90v-211h-90z" />
<glyph unicode="&#xd0;" horiz-adv-x="1366" d="M-10 743v68h139v651h479q188 0 324.5 -60.5t210.5 -167t107.5 -230t33.5 -271.5q0 -328 -172 -530.5t-508 -202.5h-475v743h-139zM219 811h541v-68h-541v-665h393q86 0 165 19.5t157 66.5t134 119.5t91 188.5t35 261q0 170 -43 296t-104.5 192.5t-149.5 105.5t-155.5 48 t-147.5 9h-375v-573z" />
<glyph unicode="&#xd1;" horiz-adv-x="1388" d="M129 0v1462h113l923 -1341h4v1341h91v-1462h-107l-930 1352h-4v-1352h-90zM399 1587q6 72 45 127q43 57 113 58q41 0 143 -56l35 -20l38 -21.5t32.5 -13.5t34.5 -6q39 0 62.5 34.5t29.5 82.5h59q-10 -82 -43 -125q-45 -59 -112 -60q-45 0 -142 60q-94 57 -143 57 q-74 0 -92 -117h-60z" />
<glyph unicode="&#xd2;" horiz-adv-x="1517" d="M63 731q0 332 188.5 549t508 217t507 -218t187.5 -548t-187.5 -548t-507 -218t-508 217t-188.5 549zM154 731q0 -293 163.5 -490.5t442.5 -197.5q276 0 440 197.5t164 490.5t-164 490.5t-440 197.5q-279 0 -442.5 -197.5t-163.5 -490.5zM526 1851h105l246 -286h-76z" />
<glyph unicode="&#xd3;" horiz-adv-x="1517" d="M63 731q0 332 188.5 549t508 217t507 -218t187.5 -548t-187.5 -548t-507 -218t-508 217t-188.5 549zM154 731q0 -293 163.5 -490.5t442.5 -197.5q276 0 440 197.5t164 490.5t-164 490.5t-440 197.5q-279 0 -442.5 -197.5t-163.5 -490.5zM641 1565l246 286h104l-274 -286 h-76z" />
<glyph unicode="&#xd4;" horiz-adv-x="1517" d="M63 731q0 332 188.5 549t508 217t507 -218t187.5 -548t-187.5 -548t-507 -218t-508 217t-188.5 549zM154 731q0 -293 163.5 -490.5t442.5 -197.5q276 0 440 197.5t164 490.5t-164 490.5t-440 197.5q-279 0 -442.5 -197.5t-163.5 -490.5zM481 1565l236 286h82l237 -286 h-78l-200 235l-199 -235h-78z" />
<glyph unicode="&#xd5;" horiz-adv-x="1517" d="M63 731q0 332 188.5 549t508 217t507 -218t187.5 -548t-187.5 -548t-507 -218t-508 217t-188.5 549zM154 731q0 -293 163.5 -490.5t442.5 -197.5q276 0 440 197.5t164 490.5t-164 490.5t-440 197.5q-279 0 -442.5 -197.5t-163.5 -490.5zM463 1587q6 72 45 127 q43 57 113 58q41 0 143 -56l35 -20l38 -21.5t32.5 -13.5t33.5 -6q39 0 62.5 34.5t29.5 82.5h60q-10 -82 -43 -125q-45 -59 -113 -60q-45 0 -141 60q-94 57 -144 57q-74 0 -92 -117h-59z" />
<glyph unicode="&#xd6;" horiz-adv-x="1517" d="M63 731q0 332 188.5 549t508 217t507 -218t187.5 -548t-187.5 -548t-507 -218t-508 217t-188.5 549zM154 731q0 -293 163.5 -490.5t442.5 -197.5q276 0 440 197.5t164 490.5t-164 490.5t-440 197.5q-279 0 -442.5 -197.5t-163.5 -490.5zM551 1571v211h90v-211h-90z M874 1571v211h91v-211h-91z" />
<glyph unicode="&#xd7;" horiz-adv-x="1228" d="M162 119l397 397l-397 399l53 56l399 -400l398 400l55 -56l-397 -399l397 -397l-55 -56l-398 400l-399 -400z" />
<glyph unicode="&#xd8;" horiz-adv-x="1517" d="M63 731q0 332 188.5 549t508.5 217q289 0 475 -186l139 151l53 -49l-143 -156q170 -207 170 -526q0 -330 -187.5 -548t-506.5 -218q-297 0 -481 191l-156 -172l-53 49l161 176q-168 209 -168 522zM154 731q0 -270 139 -457l885 973q-168 172 -418 172 q-279 0 -442.5 -197.5t-163.5 -490.5zM338 221q166 -178 422 -178q276 0 440 197.5t164 490.5q0 270 -139 461z" />
<glyph unicode="&#xd9;" horiz-adv-x="1376" d="M129 586v876h90v-876q0 -66 6 -125.5t34 -140t74 -138t135 -98.5t210 -41q256 0 367.5 139.5t111.5 403.5v876h90v-876q0 -621 -569 -621q-549 0 -549 621zM457 1851h104l246 -286h-76z" />
<glyph unicode="&#xda;" horiz-adv-x="1376" d="M129 586v876h90v-876q0 -66 6 -125.5t34 -140t74 -138t135 -98.5t210 -41q256 0 367.5 139.5t111.5 403.5v876h90v-876q0 -621 -569 -621q-549 0 -549 621zM571 1565l246 286h105l-275 -286h-76z" />
<glyph unicode="&#xdb;" horiz-adv-x="1376" d="M129 586v876h90v-876q0 -66 6 -125.5t34 -140t74 -138t135 -98.5t210 -41q256 0 367.5 139.5t111.5 403.5v876h90v-876q0 -621 -569 -621q-549 0 -549 621zM412 1565l235 286h82l238 -286h-78l-201 235l-199 -235h-77z" />
<glyph unicode="&#xdc;" horiz-adv-x="1376" d="M129 586v876h90v-876q0 -66 6 -125.5t34 -140t74 -138t135 -98.5t210 -41q256 0 367.5 139.5t111.5 403.5v876h90v-876q0 -621 -569 -621q-549 0 -549 621zM481 1571v211h90v-211h-90zM805 1571v211h90v-211h-90z" />
<glyph unicode="&#xdd;" horiz-adv-x="1175" d="M-43 1462h102l529 -774l530 774h101l-588 -850v-612h-90v612zM471 1565l246 286h104l-274 -286h-76z" />
<glyph unicode="&#xde;" horiz-adv-x="1214" d="M129 1462h90v-245h533q57 0 108 -8.5t111.5 -35t104.5 -69.5t73 -119t29 -176q0 -193 -120 -298t-339 -105h-500v-406h-90v1462zM219 483h514q182 0 268 97.5t86 230.5q0 49 -13 98t-47 104.5t-106.5 90.5t-175.5 35h-526v-656z" />
<glyph unicode="&#xdf;" horiz-adv-x="1024" d="M119 0v1100q0 387 373 387q170 0 277.5 -87t107.5 -253q0 -268 -244 -322v-4q156 -18 235.5 -119.5t79.5 -263.5q0 -113 -31.5 -197.5t-75.5 -128.5t-105.5 -71t-106.5 -34t-92 -7h-113v68h78q45 0 85 5t95 27.5t94 60.5t66.5 109.5t27.5 167.5q0 188 -117.5 263 t-328.5 75v68q162 0 268.5 74.5t106.5 228.5q0 129 -87 200.5t-220 71.5q-295 0 -295 -319v-1100h-78z" />
<glyph unicode="&#xe0;" horiz-adv-x="1024" d="M66 272q0 72 24.5 126.5t61 86t91 54t102.5 32t108 13.5q92 6 147 12t100 18.5t64.5 23.5t33 37.5t15.5 52.5t2 75q0 23 -13.5 53.5t-42 67.5t-91 61.5t-146.5 24.5q-143 0 -229 -73t-94 -208h-78q8 172 110.5 260t290.5 88q369 0 369 -274v-608q0 -41 2 -62.5t18.5 -43 t49.5 -21.5q20 0 57 6v-66q-45 -8 -64 -8q-84 0 -112.5 39t-28.5 115v55h-4q-39 -100 -143.5 -167t-247.5 -67q-352 0 -352 297zM143 272q0 -100 72 -164.5t205 -64.5q100 0 176 33t116 77t64.5 99t30.5 90t6 59v197q-23 -25 -68 -40t-87 -19l-114.5 -10.5t-111.5 -12.5 q-145 -16 -217 -72.5t-72 -171.5zM281 1497h104l246 -287h-76z" />
<glyph unicode="&#xe1;" horiz-adv-x="1024" d="M66 272q0 72 24.5 126.5t61 86t91 54t102.5 32t108 13.5q92 6 147 12t100 18.5t64.5 23.5t33 37.5t15.5 52.5t2 75q0 23 -13.5 53.5t-42 67.5t-91 61.5t-146.5 24.5q-143 0 -229 -73t-94 -208h-78q8 172 110.5 260t290.5 88q369 0 369 -274v-608q0 -41 2 -62.5t18.5 -43 t49.5 -21.5q20 0 57 6v-66q-45 -8 -64 -8q-84 0 -112.5 39t-28.5 115v55h-4q-39 -100 -143.5 -167t-247.5 -67q-352 0 -352 297zM143 272q0 -100 72 -164.5t205 -64.5q100 0 176 33t116 77t64.5 99t30.5 90t6 59v197q-23 -25 -68 -40t-87 -19l-114.5 -10.5t-111.5 -12.5 q-145 -16 -217 -72.5t-72 -171.5zM395 1210l246 287h104l-274 -287h-76z" />
<glyph unicode="&#xe2;" horiz-adv-x="1024" d="M66 272q0 72 24.5 126.5t61 86t91 54t102.5 32t108 13.5q92 6 147 12t100 18.5t64.5 23.5t33 37.5t15.5 52.5t2 75q0 23 -13.5 53.5t-42 67.5t-91 61.5t-146.5 24.5q-143 0 -229 -73t-94 -208h-78q8 172 110.5 260t290.5 88q369 0 369 -274v-608q0 -41 2 -62.5t18.5 -43 t49.5 -21.5q20 0 57 6v-66q-45 -8 -64 -8q-84 0 -112.5 39t-28.5 115v55h-4q-39 -100 -143.5 -167t-247.5 -67q-352 0 -352 297zM143 272q0 -100 72 -164.5t205 -64.5q100 0 176 33t116 77t64.5 99t30.5 90t6 59v197q-23 -25 -68 -40t-87 -19l-114.5 -10.5t-111.5 -12.5 q-145 -16 -217 -72.5t-72 -171.5zM236 1210l235 287h82l238 -287h-78l-201 236l-199 -236h-77z" />
<glyph unicode="&#xe3;" horiz-adv-x="1024" d="M66 272q0 72 24.5 126.5t61 86t91 54t102.5 32t108 13.5q92 6 147 12t100 18.5t64.5 23.5t33 37.5t15.5 52.5t2 75q0 23 -13.5 53.5t-42 67.5t-91 61.5t-146.5 24.5q-143 0 -229 -73t-94 -208h-78q8 172 110.5 260t290.5 88q369 0 369 -274v-608q0 -41 2 -62.5t18.5 -43 t49.5 -21.5q20 0 57 6v-66q-45 -8 -64 -8q-84 0 -112.5 39t-28.5 115v55h-4q-39 -100 -143.5 -167t-247.5 -67q-352 0 -352 297zM143 272q0 -100 72 -164.5t205 -64.5q100 0 176 33t116 77t64.5 99t30.5 90t6 59v197q-23 -25 -68 -40t-87 -19l-114.5 -10.5t-111.5 -12.5 q-145 -16 -217 -72.5t-72 -171.5zM217 1233q6 72 45 127q43 57 113 57q41 0 143 -55l35 -21l38 -21t32.5 -13.5t33.5 -6.5q39 0 62.5 35t30.5 82h59q-10 -82 -43 -125q-45 -59 -113 -59q-45 0 -141 59q-94 57 -143 58q-74 0 -93 -117h-59z" />
<glyph unicode="&#xe4;" horiz-adv-x="1024" d="M66 272q0 72 24.5 126.5t61 86t91 54t102.5 32t108 13.5q92 6 147 12t100 18.5t64.5 23.5t33 37.5t15.5 52.5t2 75q0 23 -13.5 53.5t-42 67.5t-91 61.5t-146.5 24.5q-143 0 -229 -73t-94 -208h-78q8 172 110.5 260t290.5 88q369 0 369 -274v-608q0 -41 2 -62.5t18.5 -43 t49.5 -21.5q20 0 57 6v-66q-45 -8 -64 -8q-84 0 -112.5 39t-28.5 115v55h-4q-39 -100 -143.5 -167t-247.5 -67q-352 0 -352 297zM143 272q0 -100 72 -164.5t205 -64.5q100 0 176 33t116 77t64.5 99t30.5 90t6 59v197q-23 -25 -68 -40t-87 -19l-114.5 -10.5t-111.5 -12.5 q-145 -16 -217 -72.5t-72 -171.5zM305 1217v210h90v-210h-90zM629 1217v210h90v-210h-90z" />
<glyph unicode="&#xe5;" horiz-adv-x="1024" d="M66 272q0 72 24.5 126.5t61 86t91 54t102.5 32t108 13.5q92 6 147 12t100 18.5t64.5 23.5t33 37.5t15.5 52.5t2 75q0 23 -13.5 53.5t-42 67.5t-91 61.5t-146.5 24.5q-143 0 -229 -73t-94 -208h-78q8 172 110.5 260t290.5 88q369 0 369 -274v-608q0 -41 2 -62.5t18.5 -43 t49.5 -21.5q20 0 57 6v-66q-45 -8 -64 -8q-84 0 -112.5 39t-28.5 115v55h-4q-39 -100 -143.5 -167t-247.5 -67q-352 0 -352 297zM143 272q0 -100 72 -164.5t205 -64.5q100 0 176 33t116 77t64.5 99t30.5 90t6 59v197q-23 -25 -68 -40t-87 -19l-114.5 -10.5t-111.5 -12.5 q-145 -16 -217 -72.5t-72 -171.5zM309 1311q0 84 59.5 143t143.5 59t143.5 -59t59.5 -143t-59.5 -143.5t-143.5 -59.5t-143.5 59.5t-59.5 143.5zM365 1310.5q0 -61.5 43 -104.5t104 -43t104 43t43 104.5t-43 104.5t-104 43t-104 -43t-43 -104.5z" />
<glyph unicode="&#xe6;" horiz-adv-x="1820" d="M66 268q0 90 35.5 153.5t96 95.5t121 46.5t130.5 16.5q35 4 91 7l92 5q36 2 80 12t68.5 26.5t39.5 50.5q12 27 12 63q0 10 -1 20q0 246 -307 246q-147 0 -236 -71t-100 -216h-77q12 178 121.5 266t291.5 88q346 0 369 -268h4q96 268 399 268q231 0 355 -163 q105 -140 105 -332q0 -32 -3 -66h-842q-2 -25 -1 -49q0 -171 89 -289q102 -135 297 -135q150 0 247 80t120 227h78q-27 -174 -146.5 -274.5t-298.5 -100.5q-160 0 -272.5 79t-149.5 227h-4q-51 -141 -164.5 -223.5t-263.5 -82.5q-162 0 -269 74t-107 219zM143 268 q0 -113 88 -169t211 -56q154 0 270.5 107.5t118.5 261.5v180h-4q-10 -18 -33.5 -29.5t-69.5 -18.5t-79 -10.5t-102.5 -8.5t-102.5 -7q-297 -19 -297 -250zM909 584h766v13q0 168 -101 288q-105 125 -278 125q-180 0 -276.5 -121t-110.5 -305z" />
<glyph unicode="&#xe7;" horiz-adv-x="1062" d="M68 536.5q0 229.5 129 385t354 155.5q180 0 299 -89t135 -261h-78q-10 135 -109.5 209t-246.5 74q-188 0 -297 -140.5t-109 -332.5q0 -223 104.5 -358.5t301.5 -135.5q145 0 245.5 91t121.5 237h77q-25 -176 -137.5 -279.5t-275.5 -114.5l-80 -92l4 -4q41 18 76 19 q63 0 108 -38t45 -112q0 -152 -209 -151q-102 0 -184 43l23 49q102 -37 163 -37q53 0 91 22.5t38 73.5q0 45 -32.5 69.5t-67.5 24.5q-55 0 -108 -24l-33 26l98 131q-223 12 -334.5 171t-111.5 388.5z" />
<glyph unicode="&#xe8;" horiz-adv-x="1062" d="M67 508v15q0 224 118 386q122 168 347 168q236 0 356 -161q109 -146 108 -356q0 -22 -1 -44h-850v-15q0 -189 99 -321q102 -137 288 -137q150 0 249.5 84t127.5 229h78q-31 -184 -148.5 -282.5t-306.5 -98.5q-221 0 -345 152q-120 147 -120 366v15zM145 584h773 q-4 176 -107.5 301t-278.5 125q-166 0 -269.5 -128t-117.5 -298zM299 1497h104l246 -287h-76z" />
<glyph unicode="&#xe9;" horiz-adv-x="1062" d="M67 508v15q0 224 118 386q122 168 347 168q236 0 356 -161q109 -146 108 -356q0 -22 -1 -44h-850v-15q0 -189 99 -321q102 -137 288 -137q150 0 249.5 84t127.5 229h78q-31 -184 -148.5 -282.5t-306.5 -98.5q-221 0 -345 152q-120 147 -120 366v15zM145 584h773 q-4 176 -107.5 301t-278.5 125q-166 0 -269.5 -128t-117.5 -298zM414 1210l245 287h105l-275 -287h-75z" />
<glyph unicode="&#xea;" horiz-adv-x="1062" d="M67 508v15q0 224 118 386q122 168 347 168q236 0 356 -161q109 -146 108 -356q0 -22 -1 -44h-850v-15q0 -189 99 -321q102 -137 288 -137q150 0 249.5 84t127.5 229h78q-31 -184 -148.5 -282.5t-306.5 -98.5q-221 0 -345 152q-120 147 -120 366v15zM145 584h773 q-4 176 -107.5 301t-278.5 125q-166 0 -269.5 -128t-117.5 -298zM254 1210l235 287h82l238 -287h-78l-201 236l-198 -236h-78z" />
<glyph unicode="&#xeb;" horiz-adv-x="1062" d="M67 508v15q0 224 118 386q122 168 347 168q236 0 356 -161q109 -146 108 -356q0 -22 -1 -44h-850v-15q0 -189 99 -321q102 -137 288 -137q150 0 249.5 84t127.5 229h78q-31 -184 -148.5 -282.5t-306.5 -98.5q-221 0 -345 152q-120 147 -120 366v15zM145 584h773 q-4 176 -107.5 301t-278.5 125q-166 0 -269.5 -128t-117.5 -298zM324 1217v210h90v-210h-90zM647 1217v210h90v-210h-90z" />
<glyph unicode="&#xec;" horiz-adv-x="344" d="M-59 1497h104l246 -287h-76zM133 0v1053h78v-1053h-78z" />
<glyph unicode="&#xed;" horiz-adv-x="344" d="M55 1210l246 287h105l-275 -287h-76zM133 0v1053h78v-1053h-78z" />
<glyph unicode="&#xee;" horiz-adv-x="344" d="M-104 1210l235 287h82l238 -287h-78l-201 236l-199 -236h-77zM133 0v1053h78v-1053h-78z" />
<glyph unicode="&#xef;" horiz-adv-x="344" d="M-35 1217v210h90v-210h-90zM133 0v1053h78v-1053h-78zM289 1217v210h90v-210h-90z" />
<glyph unicode="&#xf0;" horiz-adv-x="1099" d="M66 510q0 223 130 374.5t355 151.5q209 0 334 -151l4 4q-86 203 -318 385l-229 -127l-43 45l221 123q-113 86 -211 133l58 49q123 -66 221 -145l235 131l41 -45l-223 -125q391 -313 391 -803q0 -233 -125 -384t-356 -151q-238 0 -361.5 149.5t-123.5 385.5zM143 510 q0 -195 105.5 -331t302.5 -136q199 0 301 134t102 333q0 190 -106.5 324.5t-297 134.5t-299 -134.5t-108.5 -324.5z" />
<glyph unicode="&#xf1;" horiz-adv-x="1062" d="M115 0v1053h78v-226h4q39 115 144 182.5t232 67.5q88 0 156 -21.5t106.5 -61.5t63.5 -80t35 -97t12 -89t2 -77v-651h-78v666q0 344 -299 344q-174 0 -276 -122t-102 -319v-569h-78zM236 1233q6 72 45 127q43 57 112 57q41 0 144 -55l34 -21l38.5 -21t33 -13.5t33.5 -6.5 q39 0 62.5 35t29.5 82h59q-10 -82 -43 -125q-45 -59 -112 -59q-45 0 -142 59q-94 57 -143 58q-74 0 -92 -117h-59z" />
<glyph unicode="&#xf2;" horiz-adv-x="1099" d="M66 526.5q0 233.5 130 392t353 158.5t353 -158.5t130 -392t-130 -392.5t-353 -159t-353 159t-130 392.5zM143 526.5q0 -200.5 108.5 -342t297 -141.5t297 141.5t108.5 342t-108.5 342t-297 141.5t-297 -141.5t-108.5 -342zM317 1497h105l246 -287h-76z" />
<glyph unicode="&#xf3;" horiz-adv-x="1099" d="M66 526.5q0 233.5 130 392t353 158.5t353 -158.5t130 -392t-130 -392.5t-353 -159t-353 159t-130 392.5zM143 526.5q0 -200.5 108.5 -342t297 -141.5t297 141.5t108.5 342t-108.5 342t-297 141.5t-297 -141.5t-108.5 -342zM432 1210l246 287h104l-274 -287h-76z" />
<glyph unicode="&#xf4;" horiz-adv-x="1099" d="M66 526.5q0 233.5 130 392t353 158.5t353 -158.5t130 -392t-130 -392.5t-353 -159t-353 159t-130 392.5zM143 526.5q0 -200.5 108.5 -342t297 -141.5t297 141.5t108.5 342t-108.5 342t-297 141.5t-297 -141.5t-108.5 -342zM272 1210l236 287h82l237 -287h-77l-201 236 l-199 -236h-78z" />
<glyph unicode="&#xf5;" horiz-adv-x="1099" d="M66 526.5q0 233.5 130 392t353 158.5t353 -158.5t130 -392t-130 -392.5t-353 -159t-353 159t-130 392.5zM143 526.5q0 -200.5 108.5 -342t297 -141.5t297 141.5t108.5 342t-108.5 342t-297 141.5t-297 -141.5t-108.5 -342zM254 1233q6 72 45 127q43 57 113 57 q41 0 143 -55l35 -21l38 -21t32.5 -13.5t33.5 -6.5q39 0 62.5 35t29.5 82h60q-10 -82 -43 -125q-45 -59 -113 -59q-45 0 -141 59q-94 57 -143 58q-74 0 -93 -117h-59z" />
<glyph unicode="&#xf6;" horiz-adv-x="1099" d="M66 526.5q0 233.5 130 392t353 158.5t353 -158.5t130 -392t-130 -392.5t-353 -159t-353 159t-130 392.5zM143 526.5q0 -200.5 108.5 -342t297 -141.5t297 141.5t108.5 342t-108.5 342t-297 141.5t-297 -141.5t-108.5 -342zM342 1217v210h90v-210h-90zM666 1217v210h90 v-210h-90z" />
<glyph unicode="&#xf7;" horiz-adv-x="1228" d="M98 477v78h1032v-78h-1032zM512 104q0 45 30.5 76t73.5 31t75 -30.5t32 -76.5q0 -43 -32 -73.5t-75 -30.5t-73.5 30.5t-30.5 73.5zM512 926q0 45 30.5 75.5t73.5 30.5t75 -30.5t32 -75.5q0 -43 -32 -74t-75 -31t-73.5 31t-30.5 74z" />
<glyph unicode="&#xf8;" horiz-adv-x="1099" d="M51 47l117 125q-102 143 -102 354q0 233 130 392t353 159q215 0 340 -145l112 119l50 -47l-119 -127q100 -143 100 -351q0 -233 -130 -392t-353 -159q-207 0 -338 142l-111 -117zM143 526q0 -174 80 -297l613 648q-106 133 -287 133q-188 0 -297 -141.5t-109 -342.5z M264 172q109 -129 285 -129q188 0 296.5 141.5t108.5 341.5q0 170 -77 293z" />
<glyph unicode="&#xf9;" horiz-adv-x="1062" d="M115 401v652h78v-666q0 -344 299 -344q174 0 276 122t102 318v570h78v-1053h-78v225h-4q-39 -115 -144.5 -182.5t-232.5 -67.5q-88 0 -155.5 21.5t-106.5 61.5t-63.5 80t-34.5 97.5t-12 89t-2 76.5zM299 1497h104l246 -287h-76z" />
<glyph unicode="&#xfa;" horiz-adv-x="1062" d="M115 401v652h78v-666q0 -344 299 -344q174 0 276 122t102 318v570h78v-1053h-78v225h-4q-39 -115 -144.5 -182.5t-232.5 -67.5q-88 0 -155.5 21.5t-106.5 61.5t-63.5 80t-34.5 97.5t-12 89t-2 76.5zM414 1210l245 287h105l-275 -287h-75z" />
<glyph unicode="&#xfb;" horiz-adv-x="1062" d="M115 401v652h78v-666q0 -344 299 -344q174 0 276 122t102 318v570h78v-1053h-78v225h-4q-39 -115 -144.5 -182.5t-232.5 -67.5q-88 0 -155.5 21.5t-106.5 61.5t-63.5 80t-34.5 97.5t-12 89t-2 76.5zM254 1210l235 287h82l238 -287h-78l-201 236l-198 -236h-78z" />
<glyph unicode="&#xfc;" horiz-adv-x="1062" d="M115 401v652h78v-666q0 -344 299 -344q174 0 276 122t102 318v570h78v-1053h-78v225h-4q-39 -115 -144.5 -182.5t-232.5 -67.5q-88 0 -155.5 21.5t-106.5 61.5t-63.5 80t-34.5 97.5t-12 89t-2 76.5zM324 1217v210h90v-210h-90zM647 1217v210h90v-210h-90z" />
<glyph unicode="&#xfd;" horiz-adv-x="909" d="M-12 1053h92l391 -961l360 961h89l-451 -1166q-76 -180 -123 -217q-39 -31 -92 -39t-154 -8v68q84 0 132.5 14t86.5 53q33 33 109 248zM338 1210l246 287h104l-274 -287h-76z" />
<glyph unicode="&#xfe;" d="M133 -377v1839h78v-651h4q31 98 129 182t254 84q231 0 352 -157.5t121 -395.5q0 -250 -120 -399.5t-353 -149.5q-137 0 -237.5 60.5t-145.5 183.5h-4v-596h-78zM213 524q0 -100 19.5 -182t61.5 -151.5t120 -108.5t184 -39q195 0 295 136t100 345q0 201 -99 343.5 t-296 142.5t-291 -139.5t-94 -346.5z" />
<glyph unicode="&#xff;" horiz-adv-x="909" d="M-12 1053h92l391 -961l360 961h89l-451 -1166q-76 -180 -123 -217q-39 -31 -92 -39t-154 -8v68q84 0 132.5 14t86.5 53q33 33 109 248zM248 1217v210h90v-210h-90zM571 1217v210h91v-210h-91z" />
<glyph unicode="&#x152;" horiz-adv-x="2162" d="M63 725q0 211 78 384t238 280.5t375 107.5q119 0 231.5 -44t188.5 -126v135h954v-78h-864v-585h774v-78h-774v-643h868v-78h-958v135h-5q-55 -72 -167.5 -121t-264.5 -49q-315 0 -494.5 214t-179.5 546zM154 725q0 -295 151.5 -488.5t437.5 -193.5q156 0 258 55 q55 27 114 75t59 87v924q0 68 -117 145q-133 90 -295 90q-285 0 -446.5 -200.5t-161.5 -493.5z" />
<glyph unicode="&#x153;" horiz-adv-x="1820" d="M66 512q0 242 115.5 403.5t338.5 161.5q152 0 254.5 -82t134.5 -229h4q84 311 408 311q225 0 336 -162q100 -146 99 -352q0 -23 -1 -47h-805q-1 -23 -1 -45q0 -169 83 -291q94 -137 289 -137q139 0 227 81t121 222h78q-39 -174 -146.5 -272.5t-279.5 -98.5 q-166 0 -274.5 81t-135.5 229h-4q-82 -309 -393 -310q-231 0 -339.5 153t-108.5 384zM143 512q0 -201 93.5 -335t279.5 -134q102 0 176 42t111 114.5t53 148.5t16 164q0 137 -30.5 243.5t-113.5 180.5t-210 74q-102 0 -179 -44t-118 -120t-59.5 -159t-18.5 -175zM950 584 h727q0 178 -93 302t-263 124q-178 0 -277 -125q-94 -120 -94 -287v-14z" />
<glyph unicode="&#x178;" horiz-adv-x="1175" d="M-43 1462h102l529 -774l530 774h101l-588 -850v-612h-90v612zM381 1571v211h90v-211h-90zM705 1571v211h90v-211h-90z" />
<glyph unicode="&#x2c6;" horiz-adv-x="342" d="M-106 1210l235 287h82l238 -287h-78l-201 236l-199 -236h-77z" />
<glyph unicode="&#x2dc;" horiz-adv-x="342" d="M-125 1233q6 72 45 127q43 57 113 57q41 0 143 -55l35 -21l38 -21t32.5 -13.5t33.5 -6.5q39 0 62.5 35t30.5 82h59q-10 -82 -43 -125q-45 -59 -113 -59q-45 0 -141 59q-94 57 -143 58q-74 0 -93 -117h-59z" />
<glyph unicode="&#x2013;" horiz-adv-x="1024" d="M0 518v78h1024v-78h-1024z" />
<glyph unicode="&#x2014;" horiz-adv-x="2048" d="M266 518v78h1516v-78h-1516z" />
<glyph unicode="&#x2018;" horiz-adv-x="417" d="M162 993v211q0 209 131 258v-67q-70 -31 -70 -191h43v-211h-104z" />
<glyph unicode="&#x2019;" horiz-adv-x="417" d="M125 993v68q70 31 70 190h-43v211h104v-211q0 -209 -131 -258z" />
<glyph unicode="&#x201a;" horiz-adv-x="417" d="M125 -190q70 31 70 190h-43v211h104v-211q0 -209 -131 -258v68z" />
<glyph unicode="&#x201c;" horiz-adv-x="645" d="M131 993v211q0 209 131 258v-67q-70 -31 -69 -191h43v-211h-105zM389 993v211q0 209 131 258v-67q-70 -31 -69 -191h43v-211h-105z" />
<glyph unicode="&#x201d;" horiz-adv-x="645" d="M125 993v68q70 31 70 190h-43v211h104v-211q0 -209 -131 -258zM383 993v68q70 31 70 190h-43v211h104v-211q0 -209 -131 -258z" />
<glyph unicode="&#x201e;" horiz-adv-x="645" d="M125 -190q70 31 70 190h-43v211h104v-211q0 -209 -131 -258v68zM383 -190q70 31 70 190h-43v211h104v-211q0 -209 -131 -258v68z" />
<glyph unicode="&#x2022;" horiz-adv-x="1024" d="M147 731.5q0 151.5 106.5 258t258.5 106.5t259.5 -106.5t107.5 -258t-107.5 -259t-259.5 -107.5t-258.5 107.5t-106.5 259z" />
<glyph unicode="&#x2026;" horiz-adv-x="2048" d="M289 0v211h104v-211h-104zM971 0v211h104v-211h-104zM1653 0v211h104v-211h-104z" />
<glyph unicode="&#x2039;" horiz-adv-x="530" d="M137 516v82l234 268v-104l-174 -205l174 -209v-100z" />
<glyph unicode="&#x203a;" horiz-adv-x="530" d="M160 248v100l174 209l-174 205v104l233 -268v-82z" />
<glyph unicode="&#x20ac;" d="M25 549l30 67h99q-5 52 -5.5 101.5t5.5 95.5h-129l30 68h103q25 295 192 440q135 117 340 117q162 0 260 -62q94 -59 135 -157l-43 -78q-33 111 -131 174q-86 55 -221 55q-193 0 -305 -115q-63 -63 -101 -168.5t-46 -205.5h680l-31 -68h-656q-4 -44 -4 -93t4 -104h580 l-31 -67h-540q18 -193 110 -328q121 -178 348 -178q109 0 197 35q98 37 174 125v-94q-61 -57 -141 -89q-109 -45 -240 -45q-260 0 -403 201q-109 154 -127 373h-133z" />
<glyph unicode="&#x2122;" horiz-adv-x="2027" d="M174 1395v67h653v-67h-292v-777h-66v777h-295zM989 618v844h121l311 -708l312 708h120v-844h-65v777h-6l-342 -777h-37l-342 777h-6v-777h-66z" />
<glyph unicode="&#xe000;" horiz-adv-x="1055" d="M0 1055h1055v-1055h-1055v1055z" />
<glyph unicode="&#xfb01;" horiz-adv-x="796" d="M0 985v68h188v217q0 104 64.5 156.5t167.5 52.5q41 0 92 -11v-67q-51 10 -92 10q-154 0 -154 -147v-211h219v-68h-219v-985h-78v985h-188zM586 0v1053h78v-1053h-78zM586 1251v211h78v-211h-78z" />
<glyph unicode="&#xfb02;" horiz-adv-x="796" d="M0 985v68h188v217q0 104 64.5 156.5t167.5 52.5q41 0 92 -11v-67q-51 10 -92 10q-154 0 -154 -147v-211h219v-68h-219v-985h-78v985h-188zM586 0v1462h78v-1462h-78z" />
<glyph unicode="&#xfb03;" horiz-adv-x="1331" d="M0 985v68h188v217q0 104 64.5 156.5t167.5 52.5q41 0 92 -11v-67q-51 10 -92 10q-154 0 -154 -147v-211h219v-68h-219v-985h-78v985h-188zM494 985v68h188v217q0 104 64.5 156.5t166.5 52.5q41 0 93 -11v-67q-51 10 -93 10q-154 0 -153 -147v-211h219v-68h-219v-985h-78 v985h-188zM1120 0v1053h78v-1053h-78zM1120 1251v211h78v-211h-78z" />
<glyph unicode="&#xfb04;" horiz-adv-x="1331" d="M0 985v68h188v217q0 104 64.5 156.5t167.5 52.5q41 0 92 -11v-67q-51 10 -92 10q-154 0 -154 -147v-211h219v-68h-219v-985h-78v985h-188zM494 985v68h188v217q0 104 64.5 156.5t166.5 52.5q41 0 93 -11v-67q-51 10 -93 10q-154 0 -153 -147v-211h219v-68h-219v-985h-78 v985h-188zM1120 0v1462h78v-1462h-78z" />
</font>
</defs></svg> 